[gd_scene load_steps=7 format=2]

[ext_resource path="res://modo_normal/escenas/niveles/nivel_test/altar.gd" type="Script" id=1]
[ext_resource path="res://modo_normal/sprites/ambient/diosa.png" type="Texture" id=2]
[ext_resource path="res://modo_normal/sprites/ambient/estatua.png" type="Texture" id=3]

[sub_resource type="Animation" id=1]

length = 1.0
loop = false
step = 0.1
tracks/0/type = "value"
tracks/0/path = NodePath("diosa:self_modulate")
tracks/0/interp = 1
tracks/0/loop_wrap = true
tracks/0/imported = false
tracks/0/enabled = true
tracks/0/keys = {
"times": PoolRealArray( 0, 1 ),
"transitions": PoolRealArray( 1, 1 ),
"update": 0,
"values": [ Color( 1, 1, 1, 0 ), Color( 1, 1, 1, 1 ) ]
}

[sub_resource type="Animation" id=2]

length = 1.0
loop = false
step = 0.1
tracks/0/type = "value"
tracks/0/path = NodePath("diosa:self_modulate")
tracks/0/interp = 1
tracks/0/loop_wrap = true
tracks/0/imported = false
tracks/0/enabled = true
tracks/0/keys = {
"times": PoolRealArray( 0, 1 ),
"transitions": PoolRealArray( 1, 1 ),
"update": 0,
"values": [ Color( 1, 1, 1, 1 ), Color( 1, 1, 1, 0 ) ]
}

[sub_resource type="RectangleShape2D" id=3]

custom_solver_bias = 0.0
extents = Vector2( 27.2039, 36.743 )

[node name="altar" type="Node2D"]

position = Vector2( 370.976, 393.389 )
script = ExtResource( 1 )
__meta__ = {
"_edit_group_": true
}
skill = "doble_jump"
file_path = "res://modo_normal/dialogos/altar/altar1.json"

[node name="diosa" type="Sprite" parent="." index="0"]

self_modulate = Color( 1, 1, 1, 0 )
position = Vector2( -0.238126, -153.861 )
scale = Vector2( 0.604098, 0.625212 )
texture = ExtResource( 2 )
_sections_unfolded = [ "Visibility" ]

[node name="altar_sprite" type="Sprite" parent="." index="1"]

scale = Vector2( 1.1, 1.1 )
texture = ExtResource( 3 )
_sections_unfolded = [ "Transform" ]

[node name="AnimationPlayer" type="AnimationPlayer" parent="." index="2"]

root_node = NodePath("..")
autoplay = ""
playback_process_mode = 1
playback_default_blend_time = 0.0
playback_speed = 1.0
anims/diosa_activa = SubResource( 1 )
anims/diosa_desactiva = SubResource( 2 )
blend_times = [  ]

[node name="Area2D" type="Area2D" parent="." index="3"]

input_pickable = true
gravity_vec = Vector2( 0, 1 )
gravity = 98.0
linear_damp = 0.1
angular_damp = 1.0
audio_bus_override = false
audio_bus_name = "Master"

[node name="CollisionShape2D" type="CollisionShape2D" parent="Area2D" index="0"]

shape = SubResource( 3 )

[connection signal="body_entered" from="Area2D" to="." method="_on_Area2D_body_entered"]

[connection signal="body_exited" from="Area2D" to="." method="_on_Area2D_body_exited"]


