[gd_scene load_steps=3 format=2]

[ext_resource path="res://global/gui/escenas/vendedor/vendor_list_item.gd" type="Script" id=1]
[ext_resource path="res://global/gui/sprites/arrow.png" type="Texture" id=2]

[node name="item" type="HBoxContainer"]

anchor_left = 0.0
anchor_top = 0.0
anchor_right = 0.0
anchor_bottom = 0.0
margin_right = 153.0
margin_bottom = 16.0
rect_pivot_offset = Vector2( 0, 0 )
rect_clip_content = false
mouse_filter = 1
mouse_default_cursor_shape = 0
size_flags_horizontal = 1
size_flags_vertical = 1
alignment = 0
script = ExtResource( 1 )

[node name="arrow" type="TextureRect" parent="." index="0"]

anchor_left = 0.0
anchor_top = 0.0
anchor_right = 0.0
anchor_bottom = 0.0
margin_right = 32.0
margin_bottom = 32.0
rect_pivot_offset = Vector2( 0, 0 )
rect_clip_content = false
mouse_filter = 1
mouse_default_cursor_shape = 0
size_flags_horizontal = 1
size_flags_vertical = 4
texture = ExtResource( 2 )
stretch_mode = 0
_sections_unfolded = [ "Margin", "Size Flags", "Visibility" ]

[node name="nombre" type="Label" parent="." index="1"]

anchor_left = 0.0
anchor_top = 0.0
anchor_right = 0.0
anchor_bottom = 0.0
margin_left = 36.0
margin_top = 9.0
margin_right = 36.0
margin_bottom = 23.0
rect_pivot_offset = Vector2( 0, 0 )
rect_clip_content = false
mouse_filter = 2
mouse_default_cursor_shape = 0
size_flags_horizontal = 1
size_flags_vertical = 4
align = 1
valign = 1
percent_visible = 1.0
lines_skipped = 0
max_lines_visible = -1
_sections_unfolded = [ "Size Flags", "custom_fonts" ]


