[gd_scene load_steps=4 format=2]

[ext_resource path="res://modo_normal/escenas/items/weapon_item.gd" type="Script" id=1]
[ext_resource path="res://modo_normal/sprites/items/weapon_item.png" type="Texture" id=2]

[sub_resource type="RectangleShape2D" id=1]

custom_solver_bias = 0.0
extents = Vector2( 12, 12 )

[node name="weapon_item" type="Node2D"]

position = Vector2( 581, 343 )
script = ExtResource( 1 )
__meta__ = {
"_edit_group_": true
}
arma = "rifle"

[node name="Sprite" type="Sprite" parent="." index="0"]

texture = ExtResource( 2 )
_sections_unfolded = [ "Transform" ]

[node name="Area2D" type="Area2D" parent="." index="1"]

editor/display_folded = true
input_pickable = true
gravity_vec = Vector2( 0, 1 )
gravity = 98.0
linear_damp = 0.1
angular_damp = 1.0
audio_bus_override = false
audio_bus_name = "Master"
_sections_unfolded = [ "Collision" ]

[node name="CollisionShape2D" type="CollisionShape2D" parent="Area2D" index="0"]

shape = SubResource( 1 )

[connection signal="body_entered" from="Area2D" to="." method="_on_Area2D_body_entered"]


